module golang

go 1.21.1

require (
	github.com/fatih/color v1.15.0 // indirect
	github.com/mattn/go-colorable v0.1.13 // indirect
	github.com/mattn/go-isatty v0.0.17 // indirect
	golang.org/x/sys v0.6.0 // indirect
)
